<?xml version="1.0" encoding="utf-8"?>
<!-- Generator: Adobe Illustrator 22.0.1, SVG Export Plug-In . SVG Version: 6.00 Build 0)  -->
<!DOCTYPE svg PUBLIC "-//W3C//DTD SVG 1.1//EN" "http://www.w3.org/Graphics/SVG/1.1/DTD/svg11.dtd">
<svg version="1.1" id="Layer_1" xmlns="http://www.w3.org/2000/svg" xmlns:xlink="http://www.w3.org/1999/xlink" x="0px" y="0px"
	 viewBox="0 0 246.1 44.9" style="enable-background:new 0 0 246.1 44.9;" xml:space="preserve">
<style type="text/css">
	.st0{fill:#4989C3;}
	.st1{fill:#FFBA4A;}
</style>
<g>
	<path class="st0" d="M167.3,21.8c3.8-1.8,5.8-4.9,5.8-8.9c0-6.5-4.6-10.2-12.6-10.2H151v40.8h9.4c5,0,9-1.3,11.5-3.8
		c2-2,3-4.7,2.9-8.1C174.8,26.7,172.2,23.3,167.3,21.8z M155.3,6.7h5c5.5,0,8.4,2.2,8.4,6.5c0,4.4-3.3,7.1-8.5,7.1h-4.9V6.7z
		 M160.8,39.6h-5.5V24h5.2c4.5,0,10,1.4,10.1,7.9C170.6,36.8,167,39.6,160.8,39.6z M190.1,14.9c-7.2,0-12.1,5.9-12.1,14.6
		c0,9.1,4.7,14.6,12.6,14.6c3.9,0,7.6-1.4,10.7-4l0.1-0.1l0-0.1l-0.6-3.5l-0.1-0.3l-0.3,0.2c-3.2,2.7-6.3,4.1-9.6,4.1
		c-5.5,0-8.5-3.7-8.7-10.4h19.3v-1C201.5,20.4,197,14.9,190.1,14.9z M182.3,26.5c0.8-5.2,3.6-8.1,7.6-8.1c4.1,0,6.7,3,7.1,8.1H182.3
		z M218,14.9c-4.3,0-7.5,1.2-10.4,2.4l-0.1,0.1l0,0.2l0.6,3.5l0,0.3l0.2-0.1c3.2-1.6,6.5-2.5,9.4-2.5c3.6,0,5.5,1.7,5.5,5.1v1.6
		c-12.7,1.3-17.7,4.4-17.7,11c0,4.7,3.2,7.7,8.4,7.7c4.2,0,7.5-2.2,9.6-4.1l0.5,3.3l0,0.2h3.3V23.6C227.4,17.8,224.3,14.9,218,14.9z
		 M223.1,36.5c-2.9,2.6-6,4-8.7,4c-3,0-4.8-1.6-4.8-4.3c0-2.9,1.6-6,13.5-7.3V36.5z M246.1,43.2l-0.6-3.2l0-0.2l-0.2,0l-0.3,0
		c-0.6,0.1-1.4,0.2-2.2,0.2c-2.8,0-3.9-1-3.9-3.8V19.1h6.9l0-0.2l-0.6-3.2l0-0.2h-6.3V5.3l-0.2,0l-3.8,0.6l-0.2,0v9.6h-4.3v3.6h4.3
		v17.8c0,4.7,2.4,7,7.4,7c1.7,0,3.1-0.2,3.9-0.5l0.1-0.1L246.1,43.2z"/>
	<path class="st1" d="M27.1,20.2h-22V2.8H0.7v40.7h4.4V24.2h22v19.3h4.4V2.8h-4.4V20.2z M48,14.9c-7.2,0-12.1,5.9-12.1,14.6
		c0,9.1,4.7,14.6,12.6,14.6c4,0,7.6-1.4,10.6-4.1l0.1-0.1l-0.5-3.6l-0.1-0.4l-0.3,0.2c-3.2,2.7-6.3,4.1-9.6,4.1
		c-5.5,0-8.5-3.7-8.7-10.4h19.3v-1C59.4,20.4,54.9,14.9,48,14.9z M40.2,26.5c0.8-5.2,3.6-8.1,7.6-8.1c4.1,0,6.7,3,7.1,8.1H40.2z
		 M74.6,14.9c-4.3,0-7.5,1.2-10.4,2.4l-0.1,0.1l0,0.2l0.6,3.5l0,0.3l0.2-0.1c3.2-1.6,6.5-2.5,9.4-2.5c3.6,0,5.5,1.7,5.5,5.1v1.6
		c-12.7,1.3-17.7,4.4-17.7,11c0,4.7,3.2,7.7,8.4,7.7c4.2,0,7.5-2.2,9.6-4.1l0.5,3.3l0,0.2H84V23.6C84,17.8,80.9,14.9,74.6,14.9z
		 M79.9,36.5c-2.9,2.6-6,4-8.7,4c-3,0-4.8-1.6-4.8-4.3c0-2.9,1.6-6,13.5-7.3V36.5z M90.7,1.9l-0.2,0v41.6h4.2V1.2l-0.2,0L90.7,1.9z
		 M114.7,40l0-0.2l-0.2,0l-0.3,0c-0.6,0.1-1.4,0.2-2.2,0.2c-2.8,0-3.9-1-3.9-3.8V19.1h6.9l0-0.2l-0.6-3.2l0-0.2h-6.3V5.3l-0.2,0
		l-3.8,0.6l-0.2,0v9.6h-4.3v3.6h4.3v17.8c0,4.7,2.4,7,7.4,7c1.6,0,3.1-0.2,3.9-0.5l0.1-0.1l0-0.2L114.7,40z M134.6,14.9
		c-4,0-7.2,2.2-9.5,4.3v-18l-0.2,0L121,1.9l-0.2,0v41.7h4.3V23.5c3.1-3.1,6.1-4.7,8.7-4.7c3.2,0,4.9,1.9,4.9,5.5v19.2h4.3v-20
		C143,18,140,14.9,134.6,14.9z"/>
</g>
</svg>
