<?xml version="1.0" encoding="utf-8"?>
<!-- Generator: Adobe Illustrator 22.0.1, SVG Export Plug-In . SVG Version: 6.00 Build 0)  -->
<!DOCTYPE svg PUBLIC "-//W3C//DTD SVG 1.1//EN" "http://www.w3.org/Graphics/SVG/1.1/DTD/svg11.dtd">
<svg version="1.1" id="Layer_1" xmlns="http://www.w3.org/2000/svg" xmlns:xlink="http://www.w3.org/1999/xlink" x="0px" y="0px"
	 viewBox="0 0 116 105" style="enable-background:new 0 0 116 105;" xml:space="preserve">
<style type="text/css">
	.st0{fill:#455560;}
	.st1{fill:#4EBA76;}
</style>
<path class="st0" d="M79.4,17.2C71.4,8,58.9,2.1,44.9,2.1C20.7,2.1,1,19.6,1,41.2C1,55.8,10.2,69.3,24.7,76v13.4
	c0,1.5,0.9,2.9,2.3,3.5c0.5,0.2,1,0.3,1.4,0.3c1,0,1.9-0.4,2.7-1.1l11.5-11.5c7.6,6.5,17.9,10.6,29.2,10.6c0.9,0,1.8,0,2.8-0.1
	l12.3,12.3c1.2,1.2,3.2,0.3,3.2-1.3V87.4c14-6,23.7-18.8,23.7-33.6C113.8,35.6,99,20.4,79.4,17.2z M28.4,89.5V73.6l-1.1-0.5
	c-13.9-6-22.5-18.2-22.5-31.8c0-19.5,18-35.4,40.1-35.4c22.1,0,40.1,15.9,40.1,35.4S67,76.7,44.9,76.7c-0.8,0-1.6,0-2.6-0.1l-0.8,0
	L28.4,89.5z"/>
<g>
	<g>
		<path class="st1" d="M35.3,28.4c0.1,0,0.2,0,0.3,0c0.1,0,0.2,0.1,0.2,0.1c3,0,5.2,1.5,7,3.7c0.3,0.4,0.7,0.8,1.1,1.2
			c0.8-0.9,1.5-1.7,2.3-2.5c1.2-1.2,2.6-2,4.3-2.3c0.6-0.1,1.1-0.1,1.7-0.2c0.1,0,0.2,0,0.3,0c0.3,0,0.6,0.1,0.9,0.1
			c3.4,0.3,5.9,2.5,6.6,5.8c0,0.2,0.1,0.5,0.2,0.7c0,0.8,0,1.6,0,2.4c-0.7,3.8-3.1,6.4-5.7,9c-3.3,3.2-6.6,6.5-9.8,9.8
			c-0.2,0.2-0.4,0.4-0.7,0.6c-0.1-0.1-0.2-0.2-0.3-0.3c-4.1-4.1-8.2-8.1-12.2-12.2c-1.1-1.1-1.9-2.6-2.7-4c-0.5-0.9-0.7-1.9-1-2.9
			c0-0.8,0-1.6,0-2.4c0.1-0.2,0.1-0.4,0.2-0.5c0.7-3.2,2.5-5.1,5.7-5.8C34.1,28.5,34.7,28.4,35.3,28.4z"/>
	</g>
</g>
</svg>
